<?xml version="1.0" encoding="UTF-8" standalone="no"?>
<svg
   xmlns:dc="http://purl.org/dc/elements/1.1/"
   xmlns:cc="http://creativecommons.org/ns#"
   xmlns:rdf="http://www.w3.org/1999/02/22-rdf-syntax-ns#"
   xmlns:svg="http://www.w3.org/2000/svg"
   xmlns="http://www.w3.org/2000/svg"
   xmlns:sodipodi="http://sodipodi.sourceforge.net/DTD/sodipodi-0.dtd"
   xmlns:inkscape="http://www.inkscape.org/namespaces/inkscape"
   class="logo-icon"
   viewBox="0 0 60 60"
   fill="#000"
   id="svg4218"
   version="1.1"
   inkscape:version="0.91 r13725"
   sodipodi:docname="logo.svg">
  <metadata
     id="metadata4228">
    <rdf:RDF>
      <cc:Work
         rdf:about="">
        <dc:format>image/svg+xml</dc:format>
        <dc:type
           rdf:resource="http://purl.org/dc/dcmitype/StillImage" />
        <dc:title></dc:title>
      </cc:Work>
    </rdf:RDF>
  </metadata>
  <defs
     id="defs4226" />
  <sodipodi:namedview
     pagecolor="#ffffff"
     bordercolor="#666666"
     borderopacity="1"
     objecttolerance="10"
     gridtolerance="10"
     guidetolerance="10"
     inkscape:pageopacity="0"
     inkscape:pageshadow="2"
     inkscape:window-width="1680"
     inkscape:window-height="986"
     id="namedview4224"
     showgrid="false"
     inkscape:zoom="12.816667"
     inkscape:cx="29.219766"
     inkscape:cy="25.708713"
     inkscape:window-x="0"
     inkscape:window-y="27"
     inkscape:window-maximized="1"
     inkscape:current-layer="svg4218" />
  <path
     style="fill:#ffffff;fill-rule:evenodd;stroke:#000000;stroke-width:1px;stroke-linecap:butt;stroke-linejoin:miter;stroke-opacity:1"
     d="M 3.9791938,60.078023 3.9011738,1.7165154 35.110536,1.9505844 49.15475,15.994797 48.998703,59.765928 Z"
     id="path4256"
     inkscape:connector-curvature="0" />
  <path
     d="m 35.558994,1.0143043 -32.4140005,0 0,60.0000007 47.0000005,0 0,-45.414 -14.586,-14.5860007 z m 0.586,3.414 10.586,10.5860007 -10.586,0 0,-10.5860007 z M 5.1449935,59.014305 l 0,-56.0000007 29.0000005,0 0,14.0000007 14,0 0,42 -43.0000005,0 z"
     id="path4220"
     inkscape:connector-curvature="0" />
  <path
     d="m 31.144994,38.014305 c 0.552,0 1,-0.447 1,-1 0,-0.553 -0.448,-1 -1,-1 l -17.000001,0 c -0.552,0 -1,0.447 -1,1 0,0.553 0.448,1 1,1 l 17.000001,0 z m 10,-7 -7,0 c -0.552,0 -1,0.447 -1,1 0,0.553 0.448,1 1,1 l 7,0 c 0.552,0 1,-0.447 1,-1 0,-0.553 -0.448,-1 -1,-1 z m -23,1 c 0,0.553 0.448,1 1,1 l 10,0 c 0.552,0 1,-0.447 1,-1 0,-0.553 -0.448,-1 -1,-1 l -10,0 c -0.552,0 -1,0.447 -1,1 z m -4.710001,-0.71 c -0.18,0.19 -0.29,0.45 -0.29,0.71 0,0.26 0.11,0.52 0.29,0.7 0.18,0.19 0.44,0.3 0.71,0.3 0.27,0 0.52,-0.11 0.71,-0.29 0.18,-0.19 0.29,-0.45 0.29,-0.71 0,-0.26 -0.11,-0.52 -0.29,-0.71 -0.37,-0.37 -1.06,-0.36 -1.42,0 z m 22.000001,5 c -0.18,0.19 -0.29,0.44 -0.29,0.71 0,0.27 0.1,0.52 0.29,0.71 0.19,0.18 0.45,0.29 0.71,0.29 0.26,0 0.52,-0.11 0.71,-0.29 0.19,-0.19 0.29,-0.44 0.29,-0.71 0,-0.26 -0.11,-0.52 -0.29,-0.71 -0.38,-0.37 -1.04,-0.37 -1.42,0 z m 5,0 c -0.18,0.19 -0.29,0.44 -0.29,0.71 0,0.27 0.1,0.52 0.29,0.71 0.19,0.18 0.45,0.29 0.71,0.29 0.26,0 0.52,-0.11 0.71,-0.3 0.19,-0.19 0.29,-0.44 0.29,-0.7 0,-0.26 -0.11,-0.52 -0.29,-0.71 -0.38,-0.37 -1.04,-0.37 -1.42,0 z m -20.765,4.876 c -2.19,1.14 -2.927,3.32 -3.196,5.582 l -1.250001,-1.04 c -0.98,-0.82 -2.4,0.586 -1.42,1.415 l 2.800001,2.35 c 0.65,0.552 1.67,0.204 1.7,-0.706 0.07,-2.166 0.17,-4.742 2.34,-5.873 1.14,-0.595 0.13,-2.322 -1.01,-1.728 z m 13.43,3.942 c -1.458,-0.092 -3.592,2.155 -4.716,0.153 -0.26,-0.46 -0.92,-0.63 -1.37,-0.35 -1.42,0.87 -3.27,2.12 -4.76,0.5 -0.88,-0.95 -2.29,0.47 -1.42,1.42 1.87,2.04 4.27,1.42 6.4,0.27 0.47,0.54 1.07,0.93 1.83,1.08 0.79,0.16 4.02,-1.14 4.2,-0.9 0.75,1.03 2.49,0.03 1.72,-1.01 -0.52,-0.7 -1,-1.08 -1.91,-1.14 z m -7.79,-20.145 0.675,-0.48 -0.344,-0.75 c -0.312,-0.683 -0.813,-1.213 -1.45,-1.533 l -2.12,-1.082 c 0.975,-0.623 1.676,-1.56 2.095,-2.8 0.69,-0.418 1.12,-1.16 1.12,-1.985 l 0,-0.667 c 0,-0.677 -0.29,-1.308 -0.79,-1.745 -0.35,-1.89 -1.64,-3.9500004 -5.54,-3.9500004 -0.15,0 -0.3,0.01 -0.45,0.02 -0.52,0.05 -1.28,0 -1.94,-0.4400007 -0.300001,-0.2 -0.460001,-0.36 -0.530001,-0.46 -0.31,-0.4 -0.85,-0.54 -1.32,-0.35 -0.47,0.2 -0.75,0.67 -0.69,1.1800003 0.03,0.2600004 0.08,0.5600004 0.14,0.8900004 0.09,0.42 0.09,0.54 0.09,0.58 0,0.04 -0.06,0.16 -0.11,0.26 -0.07,0.15 -0.15,0.34 -0.25,0.58 -0.21,0.53 -0.37,1.11 -0.47,1.72 -0.49,0.44 -0.78,1.07 -0.78,1.73 l 0,0.67 c 0,0.83 0.44,1.57 1.12,1.99 0.42,1.24 1.12,2.17 2.08,2.8 l -2.21,1.09 c -0.61,0.33 -1.09,0.87 -1.38,1.54 l -0.32,0.74 0.66,0.47 c 1.88,1.34 4.090001,2.05 6.390001,2.05 2.29,0 4.49,-0.7 6.368,-2.04 z m -10.650001,-1.056 2.446001,-1.204 c 0.52,-0.257 0.85,-0.776 0.85,-1.355 l 0,-1.422 -0.6,-0.26 c -0.91,-0.393 -1.500001,-1.152 -1.820001,-2.322 l -0.14,-0.533 -0.52,-0.16 c -0.11,-0.03 -0.24,-0.15 -0.24,-0.31 l 0,-0.66 c 0,-0.14 0.1,-0.24 0.19,-0.29 l 0.47,-0.25 0.06,-0.53 c 0.06,-0.59 0.19,-1.14 0.39,-1.62 0.09,-0.21 0.16,-0.37 0.22,-0.5 0.16,-0.33 0.25,-0.57 0.29,-0.85 0.730001,0.31 1.560001,0.43 2.440001,0.36 0.097,0 0.19,-0.01 0.29,-0.01 2.92,0 3.47,1.34 3.625,2.64 l 0.06,0.52 0.466,0.25 c 0.09,0.05 0.18,0.15 0.18,0.29 l 0,0.67 c 0,0.17 -0.126,0.28 -0.24,0.32 l -0.53,0.17 -0.143,0.54 c -0.312,1.17 -0.91,1.93 -1.82,2.32 l -0.602,0.26 0,1.43 c 0,0.57 0.32,1.08 0.83,1.343 l 2.416,1.233 c -2.62,1.41 -5.92,1.4 -8.530001,-0.03 z"
     id="path4222"
     inkscape:connector-curvature="0" />
</svg>
